{
  "oldLogout": "legacy/logout",
  "oldLogin": "legacy/login",
  "oldDebate": "debate/${slug}",
  "oldVote": "debate/${slug}/vote",
  "oldProfile": "debate/${slug}/user/profile",
  "oldTimeline": "debate/${slug}/timeline",
  "graphql": "${slug}/graphql",
  "styleguide": "styleguide",
  "root": "",
  "login": "login",
  "signup": "signup",
  "changePassword": "changePassword",
  "requestPasswordChange": "requestPasswordChange",
  "ctxLogin": "${slug}/login",
  "ctxSignup": "${slug}/signup",
  "ctxChangePassword": "${slug}/changePassword",
  "ctxRequestPasswordChange": "${slug}/requestPasswordChange",
  "ctxOldLogout": "debate/${slug}/logout",
  "ctxOldLogin": "debate/${slug}/login",
  "home": "${slug}/home",
  "homeBare": "${slug}",
  "profile": "${slug}/profile/${userId}",
  "ideas": "${slug}/ideas",
  "createSynthesis": "${slug}/syntheses/createSynthesis",
  "editSynthesis": "${slug}/syntheses/${synthesisId}/edit",
  "syntheses": "${slug}/syntheses",
  "synthesis": "${slug}/syntheses/${synthesisId}",
  "synthesisIdea": "${slug}/syntheses/${synthesisId}/#${ideaId}",
  "debate": "${slug}/debate/${phase}",
  "rootDebate": "${slug}/debate",
  "community": "${slug}/community",
  "terms": "${slug}/terms",
  "theme": "theme/${themeId}",
  "brightMirrorFiction": "${slug}/debate/${phase}/theme/${themeId}/fictions/${fictionId}",
  "question": "question/${questionId}/${questionIndex}/",
  "questionModeratePosts": "question/${questionId}/${questionIndex}/pending",
  "questionPost": "${slug}/debate/${phase}/question/${questionId}/${questionIndex}/#${postId}",
  "administrationRoot": "${slug}/administration",
  "administration": "${slug}/administration/${id}",
  "unauthorizedAdministration": "${slug}/unauthorizedAdministration",
  "adminPhase": "${phase}",
  "idea": "${slug}/debate/${phase}/theme/${themeId}",
  "post": "${slug}/debate/${phase}/theme/${themeId}/#${postId}",
  "extract": "${slug}/debate/${phase}/theme/${themeId}/#${postId}#${extractId}",
  "resourcesCenter": "${slug}/resourcescenter",
  "semanticAnalysis": "${slug}/semantic-analysis-for-discussion",
  "legalNotice": "${slug}/legal-notice",
  "privacyPolicy": "${slug}/privacy-policy",
  "cookiesPolicy": "${slug}/cookies-policy",
  "userGuidelines": "${slug}/user-guidelines",
  "voteSessionAdmin": "${slug}/administration/voteSession",
  "voteSession": "${slug}/debate/${phase}/theme/${themeId}",
  "exportDebateData": "data/Discussion/${debateId}/multi-module-export",
  "exportDebatePosts": "data/Discussion/${debateId}/multi-module-posts-export",
  "exportTaxonomiesData": "data/Discussion/${debateId}/extract_csv_taxonomy",
  "exportUsersData": "data/Discussion/${debateId}/users-export",
  "integrationPage": "integration",
  "integration101Page": "integration/101/index",
  "integration101FormBuilderPage": "integration/101/form-builder",
  "integrationBrightMirrorIndex": "integration/bright-mirror/index",
  "integrationBrightMirrorFiction": "integration/bright-mirror/bright-mirror-fiction",
  "integrationSemanticAnalysis": "integration/semantic-analysis/semantic-analysis",
  "integrationTagOnPost": "integration/tag-on-post/tag-on-post"
}
